<?xml version="1.0" encoding="utf-8"?>
<!-- Generator: Adobe Illustrator 18.1.1, SVG Export Plug-In . SVG Version: 6.00 Build 0)  -->
<!DOCTYPE svg PUBLIC "-//W3C//DTD SVG 1.1//EN" "http://www.w3.org/Graphics/SVG/1.1/DTD/svg11.dtd">
<svg version="1.1" id="レイヤー_1" xmlns="http://www.w3.org/2000/svg" xmlns:xlink="http://www.w3.org/1999/xlink" x="0px"
	 y="0px" width="114.7px" height="22.6px" viewBox="0 0 114.7 22.6" enable-background="new 0 0 114.7 22.6" xml:space="preserve">
<g>
	<path fill="#5D5D5D" d="M16.3,21.4l-0.6,0.2c-1-1.1-1.7-3.3-1.8-4.6C12.8,20.2,9.6,22,6.5,22C2.9,22,0,20.2,0,16.3
		c0-4.4,2-6.1,13.7-6.7V6.9c0-3.2-0.6-5.6-5.1-5.6c-2.5,0-4.8,0.8-6.7,2.1L1.5,2.8C3.3,1.6,6,0.6,8.6,0.6c5,0,5.8,2.7,5.8,6.2v8.7
		C14.5,18,15.1,20.2,16.3,21.4z M13.8,10.3C3.6,10.9,0.7,11.9,0.7,16.2c0,4.4,3.8,5.1,5.7,5.1c4.2,0,6.5-2.7,7.4-5.5V10.3z"/>
	<path fill="#5D5D5D" d="M36.4,21.4c-1.3,0.5-3,0.7-4.9,0.7c-6.9,0-9.2-4.9-9.2-10.4c0-6.6,2.7-11.2,9.1-11.2c1.7,0,3.2,0.3,4.7,0.8
		L36,2c-1.5-0.5-3-0.8-4.6-0.8c-6.5,0-8.4,5.1-8.4,10.5c0,4.8,1.8,9.7,8.5,9.7c1.8,0,3.5-0.3,4.7-0.8L36.4,21.4z"/>
	<path fill="#5D5D5D" d="M55.9,21.4c-1.3,0.5-3,0.7-4.9,0.7c-6.9,0-9.2-4.9-9.2-10.4c0-6.6,2.7-11.2,9.1-11.2c1.7,0,3.2,0.3,4.7,0.8
		L55.5,2c-1.5-0.5-3-0.8-4.6-0.8c-6.5,0-8.4,5.1-8.4,10.5c0,4.8,1.8,9.7,8.5,9.7c1.8,0,3.5-0.3,4.7-0.8L55.9,21.4z"/>
	<path fill="#5D5D5D" d="M62.2,10.3c0,0.5,0,0.9,0,1.4c0,5.4,2.4,9.6,8.6,9.6c2.7,0,5-0.6,6.7-1.4l0.2,0.7C76,21.4,73.4,22,70.7,22
		c-4.6,0-9.3-2.4-9.3-10.3c0-6.7,3.4-11.2,8.7-11.2c4.5,0,7.8,2.4,7.8,9.4v0.4H62.2z M62.2,9.6h15c-0.1-5.9-2.6-8.5-7.2-8.5
		C65.9,1.2,62.9,4.3,62.2,9.6z"/>
	<path fill="#5D5D5D" d="M96.3,16.4c0,4.2-3,5.6-6.1,5.6c-2.1,0-4.9-0.5-6.6-1.3l0.3-0.7c1.8,0.9,4.2,1.3,6.3,1.3
		c2.7,0,5.4-1,5.4-4.8c0-2.7-2-3.9-5.7-5.3C86.8,10,84.6,9,84.6,5.7c0-3.7,3.2-5,5.7-5c2.1,0,4.2,0.6,5.7,1.4l-0.3,0.6
		c-1.4-0.8-3.4-1.3-5.5-1.3c-1.7,0-5,0.8-5,4.3c0,2.6,1.6,3.5,5,4.8C93.8,11.8,96.3,13.2,96.3,16.4z"/>
	<path fill="#5D5D5D" d="M114.3,16.4c0,4.2-3,5.6-6.1,5.6c-2.1,0-4.9-0.5-6.6-1.3l0.3-0.7c1.8,0.9,4.2,1.3,6.3,1.3
		c2.7,0,5.4-1,5.4-4.8c0-2.7-2-3.9-5.7-5.3c-3.1-1.2-5.3-2.1-5.3-5.4c0-3.7,3.2-5,5.7-5c2.1,0,4.2,0.6,5.7,1.4l-0.3,0.6
		c-1.4-0.8-3.4-1.3-5.5-1.3c-1.7,0-5,0.8-5,4.3c0,2.6,1.6,3.5,5,4.8C111.7,11.8,114.3,13.2,114.3,16.4z"/>
</g>
</svg>
