<?xml version="1.0" encoding="utf-8"?>
<!-- Generator: Adobe Illustrator 18.1.1, SVG Export Plug-In . SVG Version: 6.00 Build 0)  -->
<!DOCTYPE svg PUBLIC "-//W3C//DTD SVG 1.1//EN" "http://www.w3.org/Graphics/SVG/1.1/DTD/svg11.dtd">
<svg version="1.1" id="レイヤー_1" xmlns="http://www.w3.org/2000/svg" xmlns:xlink="http://www.w3.org/1999/xlink" x="0px"
	 y="0px" width="80.6px" height="29.9px" viewBox="0 0 80.6 29.9" enable-background="new 0 0 80.6 29.9" xml:space="preserve">
<g>
	<path fill="#5D5D5D" d="M4.9,7.6v1.3H11v0.7H4.9v19.7H4.2V9.6H0V8.9h4.2V7.6C4.2,3.1,5,0,9.5,0c0.6,0,2.1,0.2,3.3,0.6l-0.2,0.7
		c-1.1-0.3-2.5-0.5-3.1-0.5C6.5,0.8,4.9,1.8,4.9,7.6z"/>
	<path fill="#5D5D5D" d="M32.4,19.1c0,5.8-2.3,10.8-9,10.8c-6.6,0-9-5-9-10.8c0-5.8,2.3-10.7,9-10.7C30.1,8.4,32.4,13.3,32.4,19.1z
		 M31.6,19.1c0-6-2.4-10-8.2-10c-5.7,0-8.2,4-8.2,10c0,6.1,2.5,10.1,8.2,10.1C29.2,29.2,31.6,25.2,31.6,19.1z"/>
	<path fill="#5D5D5D" d="M56.9,19.1c0,5.8-2.3,10.8-9,10.8c-6.6,0-9-5-9-10.8c0-5.8,2.3-10.7,9-10.7C54.6,8.4,56.9,13.3,56.9,19.1z
		 M56.2,19.1c0-6-2.4-10-8.2-10c-5.7,0-8.2,4-8.2,10c0,6.1,2.5,10.1,8.2,10.1C53.7,29.2,56.2,25.2,56.2,19.1z"/>
	<path fill="#5D5D5D" d="M80.6,29.2l-0.7,0.2c-0.5-1.3-0.8-2.9-0.8-4.3c-0.8,1.5-3.2,4.6-7.9,4.6c-3.8,0-7.6-2.3-7.6-9.8
		c0-5.9,1.8-11.4,8.4-11.4c2.9,0,5.7,1.4,7.2,3.2V0.2l0.7-0.1v24.5C79.8,25.8,80,28.1,80.6,29.2z M79.2,14.6c0-0.5,0-1.5-0.1-1.9
		c-1.1-1.5-3.6-3.5-7.2-3.5c-5,0-7.6,3.6-7.6,10.7c0,5.2,2.1,9.1,6.9,9.1c5,0,7.2-3.7,7.8-5.1c0.1-0.5,0.1-1.4,0.1-2V14.6z"/>
</g>
</svg>
