<?xml version="1.0" encoding="utf-8"?>
<!-- Generator: Adobe Illustrator 18.1.1, SVG Export Plug-In . SVG Version: 6.00 Build 0)  -->
<!DOCTYPE svg PUBLIC "-//W3C//DTD SVG 1.1//EN" "http://www.w3.org/Graphics/SVG/1.1/DTD/svg11.dtd">
<svg version="1.1" xmlns="http://www.w3.org/2000/svg" xmlns:xlink="http://www.w3.org/1999/xlink" x="0px" y="0px" width="43.6px"
	 height="13.8px" viewBox="0 0 43.6 13.8" enable-background="new 0 0 43.6 13.8" xml:space="preserve">
<g id="レイヤー_1" display="none">
	<g display="inline">
		<path fill="#C5C5C5" d="M0,0h1.1v6.8h0c0.2-0.5,0.6-0.8,1.1-1.2C2.7,5.2,3.3,5.1,4,5.1c0.6,0,1.2,0.1,1.6,0.3
			c0.4,0.2,0.7,0.5,1,0.8C6.7,6.5,6.9,6.9,7,7.3c0.1,0.4,0.1,0.9,0.1,1.3v5H6V8.7C6,8.4,6,8,6,7.7C5.9,7.4,5.8,7.1,5.6,6.9
			C5.5,6.6,5.3,6.4,5,6.3C4.7,6.1,4.4,6,4,6C3.6,6,3.2,6.1,2.8,6.3C2.5,6.4,2.2,6.6,1.9,6.9C1.7,7.2,1.5,7.5,1.3,7.9
			C1.2,8.4,1.1,8.9,1.1,9.4v4.2H0V0z"/>
		<path fill="#C5C5C5" d="M9.5,9.4c0-0.6,0.1-1.2,0.3-1.8c0.2-0.5,0.5-1,0.9-1.4c0.4-0.4,0.8-0.7,1.4-0.9c0.5-0.2,1.1-0.3,1.8-0.3
			c0.6,0,1.2,0.1,1.8,0.3c0.5,0.2,1,0.5,1.4,0.9c0.4,0.4,0.7,0.9,0.9,1.4c0.2,0.5,0.3,1.1,0.3,1.8c0,0.6-0.1,1.2-0.3,1.8
			c-0.2,0.5-0.5,1-0.9,1.4c-0.4,0.4-0.9,0.7-1.4,0.9c-0.5,0.2-1.1,0.3-1.8,0.3c-0.6,0-1.2-0.1-1.8-0.3c-0.5-0.2-1-0.5-1.4-0.9
			c-0.4-0.4-0.7-0.9-0.9-1.4C9.6,10.7,9.5,10.1,9.5,9.4z M10.6,9.4c0,0.5,0.1,0.9,0.2,1.3c0.1,0.4,0.4,0.8,0.7,1.1
			c0.3,0.3,0.6,0.5,1,0.7c0.4,0.2,0.9,0.3,1.4,0.3c0.5,0,1-0.1,1.4-0.3c0.4-0.2,0.8-0.4,1-0.7c0.3-0.3,0.5-0.7,0.7-1.1
			c0.1-0.4,0.2-0.9,0.2-1.3c0-0.5-0.1-0.9-0.2-1.3c-0.2-0.4-0.4-0.8-0.7-1.1c-0.3-0.3-0.6-0.5-1-0.7C14.9,6.1,14.4,6,13.9,6
			c-0.5,0-1,0.1-1.4,0.3c-0.4,0.2-0.8,0.4-1,0.7c-0.3,0.3-0.5,0.7-0.7,1.1C10.7,8.5,10.6,9,10.6,9.4z"/>
		<path fill="#C5C5C5" d="M20.7,7.6c0-0.2,0-0.3,0-0.6c0-0.2,0-0.4,0-0.7c0-0.2,0-0.4,0-0.6c0-0.2,0-0.4,0-0.5h1.1
			c0,0.3,0,0.6,0,0.9c0,0.3,0,0.5,0,0.6h0.1c0.2-0.5,0.6-0.8,1.1-1.2c0.5-0.3,1.1-0.5,1.8-0.5c0.6,0,1.1,0.1,1.5,0.4
			c0.5,0.3,0.8,0.7,1,1.4c0.3-0.6,0.7-1.1,1.2-1.4c0.5-0.3,1.1-0.4,1.6-0.4c0.6,0,1.2,0.1,1.6,0.3c0.4,0.2,0.7,0.5,1,0.8
			c0.2,0.3,0.4,0.7,0.5,1.1c0.1,0.4,0.1,0.9,0.1,1.3v5h-1.1V8.7c0-0.3,0-0.7-0.1-1c-0.1-0.3-0.2-0.6-0.3-0.9
			c-0.2-0.3-0.4-0.5-0.6-0.6C30.8,6.1,30.4,6,30,6c-0.5,0-0.9,0.1-1.2,0.3C28.4,6.5,28.2,6.8,28,7c-0.2,0.3-0.3,0.6-0.4,0.9
			c-0.1,0.3-0.1,0.7-0.1,1v4.7h-1.1v-5c0-0.8-0.1-1.4-0.4-1.9C25.7,6.3,25.2,6,24.7,6c-0.4,0-0.8,0.1-1.1,0.2
			c-0.4,0.1-0.7,0.3-0.9,0.6c-0.3,0.3-0.5,0.6-0.6,1.1c-0.2,0.4-0.2,0.9-0.2,1.5v4.2h-1.1V7.6z"/>
		<path fill="#C5C5C5" d="M43.4,12c-0.4,0.6-0.9,1.1-1.6,1.4c-0.6,0.3-1.3,0.4-2,0.4c-0.6,0-1.2-0.1-1.7-0.3c-0.5-0.2-1-0.5-1.3-0.9
			c-0.4-0.4-0.7-0.9-0.9-1.4c-0.2-0.5-0.3-1.1-0.3-1.8c0-0.6,0.1-1.2,0.3-1.7c0.2-0.5,0.5-1,0.9-1.4c0.4-0.4,0.8-0.7,1.3-0.9
			c0.5-0.2,1.1-0.3,1.7-0.3c0.6,0,1.2,0.1,1.7,0.3c0.5,0.2,0.9,0.5,1.2,0.9c0.3,0.4,0.6,0.8,0.7,1.3C43.5,8,43.6,8.5,43.6,9v0.8h-7
			c0,0.2,0,0.5,0.1,0.9c0.1,0.4,0.3,0.7,0.5,1c0.2,0.3,0.6,0.6,1,0.9c0.4,0.2,0.9,0.4,1.6,0.4c0.6,0,1.1-0.1,1.6-0.4
			c0.5-0.3,0.9-0.6,1.2-1.1L43.4,12z M42.6,8.7c0-0.4-0.1-0.7-0.2-1c-0.1-0.3-0.4-0.6-0.6-0.9c-0.3-0.2-0.6-0.4-0.9-0.6
			C40.4,6.1,40.1,6,39.7,6c-0.6,0-1.1,0.1-1.5,0.4c-0.4,0.2-0.7,0.5-0.9,0.8c-0.2,0.3-0.4,0.6-0.5,0.9c-0.1,0.3-0.1,0.5-0.1,0.6
			H42.6z"/>
	</g>
</g>
<g id="レイヤー_2">
	<g>
		<path fill="#040000" d="M0,0h1.1v6.8h0c0.2-0.5,0.6-0.8,1.1-1.2C2.7,5.2,3.3,5.1,4,5.1c0.6,0,1.2,0.1,1.6,0.3
			c0.4,0.2,0.7,0.5,1,0.8C6.7,6.5,6.9,6.9,7,7.3c0.1,0.4,0.1,0.9,0.1,1.3v5H6V8.7C6,8.4,6,8,6,7.7C5.9,7.4,5.8,7.1,5.6,6.9
			C5.5,6.6,5.3,6.4,5,6.3C4.7,6.1,4.4,6,4,6C3.6,6,3.2,6.1,2.8,6.3C2.5,6.4,2.2,6.6,1.9,6.9C1.7,7.2,1.5,7.5,1.3,7.9
			C1.2,8.4,1.1,8.9,1.1,9.4v4.2H0V0z"/>
		<path fill="#040000" d="M9.5,9.4c0-0.6,0.1-1.2,0.3-1.8c0.2-0.5,0.5-1,0.9-1.4c0.4-0.4,0.8-0.7,1.4-0.9c0.5-0.2,1.1-0.3,1.8-0.3
			c0.6,0,1.2,0.1,1.8,0.3c0.5,0.2,1,0.5,1.4,0.9c0.4,0.4,0.7,0.9,0.9,1.4c0.2,0.5,0.3,1.1,0.3,1.8c0,0.6-0.1,1.2-0.3,1.8
			c-0.2,0.5-0.5,1-0.9,1.4c-0.4,0.4-0.9,0.7-1.4,0.9c-0.5,0.2-1.1,0.3-1.8,0.3c-0.6,0-1.2-0.1-1.8-0.3c-0.5-0.2-1-0.5-1.4-0.9
			c-0.4-0.4-0.7-0.9-0.9-1.4C9.6,10.7,9.5,10.1,9.5,9.4z M10.6,9.4c0,0.5,0.1,0.9,0.2,1.3c0.1,0.4,0.4,0.8,0.7,1.1
			c0.3,0.3,0.6,0.5,1,0.7c0.4,0.2,0.9,0.3,1.4,0.3c0.5,0,1-0.1,1.4-0.3c0.4-0.2,0.8-0.4,1-0.7c0.3-0.3,0.5-0.7,0.7-1.1
			c0.1-0.4,0.2-0.9,0.2-1.3c0-0.5-0.1-0.9-0.2-1.3c-0.2-0.4-0.4-0.8-0.7-1.1c-0.3-0.3-0.6-0.5-1-0.7C14.9,6.1,14.4,6,13.9,6
			c-0.5,0-1,0.1-1.4,0.3c-0.4,0.2-0.8,0.4-1,0.7c-0.3,0.3-0.5,0.7-0.7,1.1C10.7,8.5,10.6,9,10.6,9.4z"/>
		<path fill="#040000" d="M20.7,7.6c0-0.2,0-0.3,0-0.6c0-0.2,0-0.4,0-0.7c0-0.2,0-0.4,0-0.6c0-0.2,0-0.4,0-0.5h1.1
			c0,0.3,0,0.6,0,0.9c0,0.3,0,0.5,0,0.6h0.1c0.2-0.5,0.6-0.8,1.1-1.2c0.5-0.3,1.1-0.5,1.8-0.5c0.6,0,1.1,0.1,1.5,0.4
			c0.5,0.3,0.8,0.7,1,1.4c0.3-0.6,0.7-1.1,1.2-1.4c0.5-0.3,1.1-0.4,1.6-0.4c0.6,0,1.2,0.1,1.6,0.3c0.4,0.2,0.7,0.5,1,0.8
			c0.2,0.3,0.4,0.7,0.5,1.1c0.1,0.4,0.1,0.9,0.1,1.3v5h-1.1V8.7c0-0.3,0-0.7-0.1-1c-0.1-0.3-0.2-0.6-0.3-0.9
			c-0.2-0.3-0.4-0.5-0.6-0.6C30.8,6.1,30.4,6,30,6c-0.5,0-0.9,0.1-1.2,0.3C28.4,6.5,28.2,6.8,28,7c-0.2,0.3-0.3,0.6-0.4,0.9
			c-0.1,0.3-0.1,0.7-0.1,1v4.7h-1.1v-5c0-0.8-0.1-1.4-0.4-1.9C25.7,6.3,25.2,6,24.7,6c-0.4,0-0.8,0.1-1.1,0.2
			c-0.4,0.1-0.7,0.3-0.9,0.6c-0.3,0.3-0.5,0.6-0.6,1.1c-0.2,0.4-0.2,0.9-0.2,1.5v4.2h-1.1V7.6z"/>
		<path fill="#040000" d="M43.4,12c-0.4,0.6-0.9,1.1-1.6,1.4c-0.6,0.3-1.3,0.4-2,0.4c-0.6,0-1.2-0.1-1.7-0.3c-0.5-0.2-1-0.5-1.3-0.9
			c-0.4-0.4-0.7-0.9-0.9-1.4c-0.2-0.5-0.3-1.1-0.3-1.8c0-0.6,0.1-1.2,0.3-1.7c0.2-0.5,0.5-1,0.9-1.4c0.4-0.4,0.8-0.7,1.3-0.9
			c0.5-0.2,1.1-0.3,1.7-0.3c0.6,0,1.2,0.1,1.7,0.3c0.5,0.2,0.9,0.5,1.2,0.9c0.3,0.4,0.6,0.8,0.7,1.3C43.5,8,43.6,8.5,43.6,9v0.8h-7
			c0,0.2,0,0.5,0.1,0.9c0.1,0.4,0.3,0.7,0.5,1c0.2,0.3,0.6,0.6,1,0.9c0.4,0.2,0.9,0.4,1.6,0.4c0.6,0,1.1-0.1,1.6-0.4
			c0.5-0.3,0.9-0.6,1.2-1.1L43.4,12z M42.6,8.7c0-0.4-0.1-0.7-0.2-1c-0.1-0.3-0.4-0.6-0.6-0.9c-0.3-0.2-0.6-0.4-0.9-0.6
			C40.4,6.1,40.1,6,39.7,6c-0.6,0-1.1,0.1-1.5,0.4c-0.4,0.2-0.7,0.5-0.9,0.8c-0.2,0.3-0.4,0.6-0.5,0.9c-0.1,0.3-0.1,0.5-0.1,0.6
			H42.6z"/>
	</g>
</g>
</svg>
