<?xml version="1.0" encoding="utf-8"?>
<!-- Generator: Adobe Illustrator 18.1.1, SVG Export Plug-In . SVG Version: 6.00 Build 0)  -->
<!DOCTYPE svg PUBLIC "-//W3C//DTD SVG 1.1//EN" "http://www.w3.org/Graphics/SVG/1.1/DTD/svg11.dtd">
<svg version="1.1" xmlns="http://www.w3.org/2000/svg" xmlns:xlink="http://www.w3.org/1999/xlink" x="0px" y="0px" width="49.5px"
	 height="17.9px" viewBox="0 0 49.5 17.9" enable-background="new 0 0 49.5 17.9" xml:space="preserve">
<g id="レイヤー_1" display="none">
	<g display="inline">
		<path fill="#C5C5C5" d="M0,5.5h1.1V7h0c0.2-0.3,0.4-0.5,0.6-0.7C2,6,2.3,5.8,2.6,5.7c0.3-0.1,0.6-0.2,0.9-0.3
			c0.3-0.1,0.6-0.1,1-0.1c0.6,0,1.2,0.1,1.8,0.3c0.5,0.2,1,0.5,1.4,0.9C8,6.9,8.3,7.4,8.5,7.9C8.7,8.4,8.8,9,8.8,9.7
			c0,0.6-0.1,1.2-0.3,1.8c-0.2,0.5-0.5,1-0.9,1.4c-0.4,0.4-0.9,0.7-1.4,0.9C5.7,13.9,5.1,14,4.4,14c-0.3,0-0.6,0-1-0.1
			c-0.3-0.1-0.6-0.2-0.9-0.3c-0.3-0.1-0.6-0.3-0.8-0.5c-0.3-0.2-0.5-0.5-0.6-0.7h0v5.6H0V5.5z M1,9.7c0,0.5,0.1,0.9,0.3,1.3
			c0.2,0.4,0.4,0.8,0.7,1.1c0.3,0.3,0.7,0.5,1.1,0.7C3.5,13,4,13.1,4.4,13.1c0.5,0,1-0.1,1.4-0.3c0.4-0.2,0.8-0.4,1-0.7
			c0.3-0.3,0.5-0.7,0.7-1.1c0.1-0.4,0.2-0.9,0.2-1.3c0-0.5-0.1-0.9-0.2-1.3C7.4,7.9,7.1,7.6,6.9,7.3C6.6,7,6.2,6.7,5.8,6.5
			C5.4,6.4,4.9,6.3,4.4,6.3C4,6.3,3.5,6.4,3.1,6.5C2.7,6.7,2.3,7,2,7.3C1.7,7.6,1.4,7.9,1.2,8.3C1.1,8.8,1,9.2,1,9.7z"/>
		<path fill="#C5C5C5" d="M11.2,7.8c0-0.2,0-0.3,0-0.6c0-0.2,0-0.4,0-0.7c0-0.2,0-0.4,0-0.6c0-0.2,0-0.3,0-0.5h1.1
			c0,0.3,0,0.6,0,0.9c0,0.3,0,0.5,0,0.6c0.3-0.5,0.6-0.9,1.1-1.2c0.4-0.3,1-0.5,1.6-0.5c0.1,0,0.2,0,0.3,0c0.1,0,0.2,0,0.3,0.1
			l-0.1,1.1c-0.1,0-0.3-0.1-0.4-0.1c-0.5,0-0.9,0.1-1.2,0.2C13.5,6.7,13.2,7,13,7.2c-0.2,0.3-0.4,0.6-0.5,0.9
			c-0.1,0.4-0.2,0.7-0.2,1.1v4.5h-1.1V7.8z"/>
		<path fill="#C5C5C5" d="M16.8,9.7c0-0.6,0.1-1.2,0.3-1.8c0.2-0.5,0.5-1,0.9-1.4c0.4-0.4,0.8-0.7,1.4-0.9c0.5-0.2,1.1-0.3,1.8-0.3
			c0.6,0,1.2,0.1,1.8,0.3c0.5,0.2,1,0.5,1.4,0.9c0.4,0.4,0.7,0.9,0.9,1.4c0.2,0.5,0.3,1.1,0.3,1.8c0,0.6-0.1,1.2-0.3,1.8
			c-0.2,0.5-0.5,1-0.9,1.4c-0.4,0.4-0.9,0.7-1.4,0.9c-0.5,0.2-1.1,0.3-1.8,0.3c-0.6,0-1.2-0.1-1.8-0.3c-0.5-0.2-1-0.5-1.4-0.9
			c-0.4-0.4-0.7-0.9-0.9-1.4C16.9,10.9,16.8,10.3,16.8,9.7z M17.8,9.7c0,0.5,0.1,0.9,0.2,1.3c0.1,0.4,0.4,0.8,0.7,1.1
			c0.3,0.3,0.6,0.5,1,0.7c0.4,0.2,0.9,0.3,1.4,0.3c0.5,0,1-0.1,1.4-0.3c0.4-0.2,0.8-0.4,1-0.7c0.3-0.3,0.5-0.7,0.7-1.1
			c0.1-0.4,0.2-0.9,0.2-1.3c0-0.5-0.1-0.9-0.2-1.3c-0.2-0.4-0.4-0.8-0.7-1.1c-0.3-0.3-0.6-0.5-1-0.7c-0.4-0.2-0.9-0.3-1.4-0.3
			c-0.5,0-1,0.1-1.4,0.3c-0.4,0.2-0.8,0.4-1,0.7c-0.3,0.3-0.5,0.7-0.7,1.1C17.9,8.8,17.8,9.2,17.8,9.7z"/>
		<path fill="#C5C5C5" d="M28.5,6.5h-1.7v-1h1.7V2.8c0-0.5,0.1-1,0.2-1.3c0.2-0.4,0.4-0.6,0.6-0.9c0.2-0.2,0.5-0.4,0.8-0.5
			C30.5,0,30.7,0,31,0c0.5,0,0.9,0.1,1.2,0.2L32,1.2C31.8,1,31.5,1,31.1,1c-1,0-1.5,0.7-1.5,2.2v2.3h1.9v1h-1.9v7.3h-1.1V6.5z"/>
		<path fill="#C5C5C5" d="M33.2,2.2c0-0.2,0.1-0.4,0.2-0.6c0.2-0.2,0.3-0.2,0.6-0.2c0.2,0,0.4,0.1,0.6,0.2c0.2,0.2,0.2,0.3,0.2,0.6
			c0,0.2-0.1,0.4-0.2,0.6C34.4,2.9,34.2,3,34,3c-0.2,0-0.4-0.1-0.6-0.2C33.2,2.6,33.2,2.4,33.2,2.2z M33.4,5.5h1.1v8.3h-1.1V5.5z"/>
		<path fill="#C5C5C5" d="M37.7,0.2h1.1v13.6h-1.1V0.2z"/>
		<path fill="#C5C5C5" d="M49.2,12.3c-0.4,0.6-0.9,1.1-1.6,1.4c-0.6,0.3-1.3,0.4-2,0.4c-0.6,0-1.2-0.1-1.7-0.3
			c-0.5-0.2-1-0.5-1.3-0.9c-0.4-0.4-0.7-0.9-0.9-1.4c-0.2-0.5-0.3-1.1-0.3-1.8c0-0.6,0.1-1.2,0.3-1.7c0.2-0.5,0.5-1,0.9-1.4
			c0.4-0.4,0.8-0.7,1.3-0.9c0.5-0.2,1.1-0.3,1.7-0.3c0.6,0,1.2,0.1,1.7,0.3c0.5,0.2,0.9,0.5,1.2,0.9c0.3,0.4,0.6,0.8,0.7,1.2
			c0.2,0.5,0.3,0.9,0.3,1.4v0.8h-7c0,0.2,0,0.5,0.1,0.9c0.1,0.4,0.3,0.7,0.5,1c0.2,0.3,0.6,0.6,1,0.9c0.4,0.2,0.9,0.4,1.6,0.4
			c0.6,0,1.1-0.1,1.6-0.4c0.5-0.3,0.9-0.6,1.2-1.1L49.2,12.3z M48.4,9c0-0.4-0.1-0.7-0.2-1c-0.1-0.3-0.4-0.6-0.6-0.9
			c-0.3-0.2-0.6-0.4-0.9-0.6c-0.4-0.1-0.7-0.2-1.1-0.2c-0.6,0-1.1,0.1-1.5,0.4c-0.4,0.2-0.7,0.5-0.9,0.8c-0.2,0.3-0.4,0.6-0.5,0.9
			c-0.1,0.3-0.1,0.5-0.1,0.6H48.4z"/>
	</g>
</g>
<g id="レイヤー_2">
	<g>
		<path fill="#040000" d="M0,5.5h1.1V7h0c0.2-0.3,0.4-0.5,0.6-0.7C2,6,2.3,5.8,2.6,5.7c0.3-0.1,0.6-0.2,0.9-0.3
			c0.3-0.1,0.6-0.1,1-0.1c0.6,0,1.2,0.1,1.8,0.3c0.5,0.2,1,0.5,1.4,0.9C8,6.9,8.3,7.4,8.5,7.9C8.7,8.4,8.8,9,8.8,9.7
			c0,0.6-0.1,1.2-0.3,1.8c-0.2,0.5-0.5,1-0.9,1.4c-0.4,0.4-0.9,0.7-1.4,0.9C5.7,13.9,5.1,14,4.4,14c-0.3,0-0.6,0-1-0.1
			c-0.3-0.1-0.6-0.2-0.9-0.3c-0.3-0.1-0.6-0.3-0.8-0.5c-0.3-0.2-0.5-0.5-0.6-0.7h0v5.6H0V5.5z M1,9.7c0,0.5,0.1,0.9,0.3,1.3
			c0.2,0.4,0.4,0.8,0.7,1.1c0.3,0.3,0.7,0.5,1.1,0.7C3.5,13,4,13.1,4.4,13.1c0.5,0,1-0.1,1.4-0.3c0.4-0.2,0.8-0.4,1-0.7
			c0.3-0.3,0.5-0.7,0.7-1.1c0.1-0.4,0.2-0.9,0.2-1.3c0-0.5-0.1-0.9-0.2-1.3C7.4,7.9,7.1,7.6,6.9,7.3C6.6,7,6.2,6.7,5.8,6.5
			C5.4,6.4,4.9,6.3,4.4,6.3C4,6.3,3.5,6.4,3.1,6.5C2.7,6.7,2.3,7,2,7.3C1.7,7.6,1.4,7.9,1.2,8.3C1.1,8.8,1,9.2,1,9.7z"/>
		<path fill="#040000" d="M11.2,7.8c0-0.2,0-0.3,0-0.6c0-0.2,0-0.4,0-0.7c0-0.2,0-0.4,0-0.6c0-0.2,0-0.3,0-0.5h1.1
			c0,0.3,0,0.6,0,0.9c0,0.3,0,0.5,0,0.6c0.3-0.5,0.6-0.9,1.1-1.2c0.4-0.3,1-0.5,1.6-0.5c0.1,0,0.2,0,0.3,0c0.1,0,0.2,0,0.3,0.1
			l-0.1,1.1c-0.1,0-0.3-0.1-0.4-0.1c-0.5,0-0.9,0.1-1.2,0.2C13.5,6.7,13.2,7,13,7.2c-0.2,0.3-0.4,0.6-0.5,0.9
			c-0.1,0.4-0.2,0.7-0.2,1.1v4.5h-1.1V7.8z"/>
		<path fill="#040000" d="M16.8,9.7c0-0.6,0.1-1.2,0.3-1.8c0.2-0.5,0.5-1,0.9-1.4c0.4-0.4,0.8-0.7,1.4-0.9c0.5-0.2,1.1-0.3,1.8-0.3
			c0.6,0,1.2,0.1,1.8,0.3c0.5,0.2,1,0.5,1.4,0.9c0.4,0.4,0.7,0.9,0.9,1.4c0.2,0.5,0.3,1.1,0.3,1.8c0,0.6-0.1,1.2-0.3,1.8
			c-0.2,0.5-0.5,1-0.9,1.4c-0.4,0.4-0.9,0.7-1.4,0.9c-0.5,0.2-1.1,0.3-1.8,0.3c-0.6,0-1.2-0.1-1.8-0.3c-0.5-0.2-1-0.5-1.4-0.9
			c-0.4-0.4-0.7-0.9-0.9-1.4C16.9,10.9,16.8,10.3,16.8,9.7z M17.8,9.7c0,0.5,0.1,0.9,0.2,1.3c0.1,0.4,0.4,0.8,0.7,1.1
			c0.3,0.3,0.6,0.5,1,0.7c0.4,0.2,0.9,0.3,1.4,0.3c0.5,0,1-0.1,1.4-0.3c0.4-0.2,0.8-0.4,1-0.7c0.3-0.3,0.5-0.7,0.7-1.1
			c0.1-0.4,0.2-0.9,0.2-1.3c0-0.5-0.1-0.9-0.2-1.3c-0.2-0.4-0.4-0.8-0.7-1.1c-0.3-0.3-0.6-0.5-1-0.7c-0.4-0.2-0.9-0.3-1.4-0.3
			c-0.5,0-1,0.1-1.4,0.3c-0.4,0.2-0.8,0.4-1,0.7c-0.3,0.3-0.5,0.7-0.7,1.1C17.9,8.8,17.8,9.2,17.8,9.7z"/>
		<path fill="#040000" d="M28.5,6.5h-1.7v-1h1.7V2.8c0-0.5,0.1-1,0.2-1.3c0.2-0.4,0.4-0.6,0.6-0.9c0.2-0.2,0.5-0.4,0.8-0.5
			C30.5,0,30.7,0,31,0c0.5,0,0.9,0.1,1.2,0.2L32,1.2C31.8,1,31.5,1,31.1,1c-1,0-1.5,0.7-1.5,2.2v2.3h1.9v1h-1.9v7.3h-1.1V6.5z"/>
		<path fill="#040000" d="M33.2,2.2c0-0.2,0.1-0.4,0.2-0.6c0.2-0.2,0.3-0.2,0.6-0.2c0.2,0,0.4,0.1,0.6,0.2c0.2,0.2,0.2,0.3,0.2,0.6
			s-0.1,0.4-0.2,0.6C34.4,2.9,34.2,3,34,3c-0.2,0-0.4-0.1-0.6-0.2C33.2,2.6,33.2,2.4,33.2,2.2z M33.4,5.5h1.1v8.3h-1.1V5.5z"/>
		<path fill="#040000" d="M37.7,0.2h1.1v13.6h-1.1V0.2z"/>
		<path fill="#040000" d="M49.2,12.3c-0.4,0.6-0.9,1.1-1.6,1.4c-0.6,0.3-1.3,0.4-2,0.4c-0.6,0-1.2-0.1-1.7-0.3
			c-0.5-0.2-1-0.5-1.3-0.9c-0.4-0.4-0.7-0.9-0.9-1.4c-0.2-0.5-0.3-1.1-0.3-1.8c0-0.6,0.1-1.2,0.3-1.7c0.2-0.5,0.5-1,0.9-1.4
			c0.4-0.4,0.8-0.7,1.3-0.9c0.5-0.2,1.1-0.3,1.7-0.3c0.6,0,1.2,0.1,1.7,0.3c0.5,0.2,0.9,0.5,1.2,0.9c0.3,0.4,0.6,0.8,0.7,1.2
			c0.2,0.5,0.3,0.9,0.3,1.4v0.8h-7c0,0.2,0,0.5,0.1,0.9c0.1,0.4,0.3,0.7,0.5,1c0.2,0.3,0.6,0.6,1,0.9c0.4,0.2,0.9,0.4,1.6,0.4
			c0.6,0,1.1-0.1,1.6-0.4c0.5-0.3,0.9-0.6,1.2-1.1L49.2,12.3z M48.4,9c0-0.4-0.1-0.7-0.2-1c-0.1-0.3-0.4-0.6-0.6-0.9
			c-0.3-0.2-0.6-0.4-0.9-0.6c-0.4-0.1-0.7-0.2-1.1-0.2c-0.6,0-1.1,0.1-1.5,0.4c-0.4,0.2-0.7,0.5-0.9,0.8c-0.2,0.3-0.4,0.6-0.5,0.9
			c-0.1,0.3-0.1,0.5-0.1,0.6H48.4z"/>
	</g>
</g>
</svg>
