<?xml version="1.0" encoding="utf-8"?>
<!-- Generator: Adobe Illustrator 18.1.1, SVG Export Plug-In . SVG Version: 6.00 Build 0)  -->
<!DOCTYPE svg PUBLIC "-//W3C//DTD SVG 1.1//EN" "http://www.w3.org/Graphics/SVG/1.1/DTD/svg11.dtd">
<svg version="1.1" xmlns="http://www.w3.org/2000/svg" xmlns:xlink="http://www.w3.org/1999/xlink" x="0px" y="0px" width="50.1px"
	 height="8.7px" viewBox="0 0 50.1 8.7" enable-background="new 0 0 50.1 8.7" xml:space="preserve">
<g id="レイヤー_1">
	<g>
		<path fill="#C5C5C5" d="M6.8,5c0,0.4,0,0.8,0,1.1c0,0.3,0,0.6,0,0.9c0,0.3,0,0.5,0,0.8c0,0.2,0,0.5,0.1,0.7H6
			C5.9,8.1,5.9,7.7,5.9,7.2h0C5.5,7.7,5.2,8.1,4.7,8.4c-0.5,0.3-1,0.4-1.8,0.4c-0.4,0-0.7,0-1.1-0.1C1.5,8.5,1.2,8.4,0.9,8.2
			C0.7,8,0.4,7.7,0.3,7.4C0.1,7.1,0,6.7,0,6.3c0-0.6,0.2-1.1,0.5-1.5c0.3-0.4,0.7-0.7,1.2-0.8c0.5-0.2,1-0.3,1.5-0.4
			c0.5-0.1,1-0.1,1.4-0.1h1.3V3c0-0.7-0.2-1.2-0.7-1.5C4.8,1.1,4.2,1,3.5,1C2.6,1,1.7,1.3,1,1.9L0.4,1.2c0.4-0.4,0.9-0.7,1.5-0.9
			S3,0,3.5,0c1,0,1.8,0.2,2.4,0.7C6.5,1.2,6.8,1.9,6.8,3V5z M4.7,4.4c-0.5,0-0.9,0-1.3,0.1C2.9,4.5,2.5,4.6,2.2,4.8
			C1.9,4.9,1.6,5.1,1.4,5.3C1.2,5.6,1.1,5.9,1.1,6.2c0,0.3,0.1,0.5,0.2,0.7c0.1,0.2,0.3,0.4,0.4,0.5c0.2,0.1,0.4,0.2,0.6,0.3
			C2.5,7.7,2.7,7.8,3,7.8c0.6,0,1-0.1,1.4-0.3c0.4-0.2,0.7-0.4,0.9-0.7c0.2-0.3,0.4-0.6,0.5-0.9c0.1-0.3,0.1-0.7,0.1-1V4.4H4.7z"/>
		<path fill="#C5C5C5" d="M16.7,7.3c-0.4,0.5-0.9,0.9-1.4,1.1c-0.5,0.2-1.1,0.4-1.7,0.4c-0.6,0-1.2-0.1-1.8-0.3
			c-0.5-0.2-1-0.5-1.4-0.9c-0.4-0.4-0.7-0.9-0.9-1.4C9.4,5.6,9.3,5,9.3,4.4c0-0.6,0.1-1.2,0.3-1.8c0.2-0.5,0.5-1,0.9-1.4
			c0.4-0.4,0.8-0.7,1.4-0.9C12.4,0.1,13,0,13.6,0c0.6,0,1.2,0.1,1.7,0.4c0.5,0.3,1,0.6,1.4,1.1l-0.9,0.6c-0.3-0.3-0.7-0.6-1-0.8
			C14.5,1.1,14.1,1,13.6,1c-0.5,0-1,0.1-1.4,0.3c-0.4,0.2-0.8,0.4-1,0.7c-0.3,0.3-0.5,0.7-0.7,1.1c-0.1,0.4-0.2,0.9-0.2,1.3
			c0,0.5,0.1,0.9,0.2,1.3c0.1,0.4,0.4,0.8,0.7,1.1c0.3,0.3,0.6,0.5,1,0.7c0.4,0.2,0.9,0.3,1.4,0.3c0.5,0,0.9-0.1,1.3-0.3
			c0.4-0.2,0.7-0.5,1-0.8L16.7,7.3z"/>
		<path fill="#C5C5C5" d="M25.3,7.3c-0.4,0.5-0.9,0.9-1.4,1.1c-0.5,0.2-1.1,0.4-1.7,0.4c-0.6,0-1.2-0.1-1.8-0.3
			c-0.5-0.2-1-0.5-1.4-0.9c-0.4-0.4-0.7-0.9-0.9-1.4C18,5.6,17.9,5,17.9,4.4c0-0.6,0.1-1.2,0.3-1.8c0.2-0.5,0.5-1,0.9-1.4
			c0.4-0.4,0.8-0.7,1.4-0.9C21.1,0.1,21.6,0,22.3,0c0.6,0,1.2,0.1,1.7,0.4c0.5,0.3,1,0.6,1.4,1.1l-0.9,0.6c-0.3-0.3-0.7-0.6-1-0.8
			C23.1,1.1,22.7,1,22.3,1c-0.5,0-1,0.1-1.4,0.3c-0.4,0.2-0.8,0.4-1,0.7c-0.3,0.3-0.5,0.7-0.7,1.1C19.1,3.5,19,3.9,19,4.4
			c0,0.5,0.1,0.9,0.2,1.3c0.1,0.4,0.4,0.8,0.7,1.1c0.3,0.3,0.6,0.5,1,0.7c0.4,0.2,0.9,0.3,1.4,0.3c0.5,0,0.9-0.1,1.3-0.3
			c0.4-0.2,0.7-0.5,1-0.8L25.3,7.3z"/>
		<path fill="#C5C5C5" d="M34.4,7c-0.4,0.6-0.9,1.1-1.6,1.4c-0.6,0.3-1.3,0.4-2,0.4c-0.6,0-1.2-0.1-1.7-0.3c-0.5-0.2-1-0.5-1.3-0.9
			c-0.4-0.4-0.7-0.9-0.9-1.4c-0.2-0.5-0.3-1.1-0.3-1.8c0-0.6,0.1-1.2,0.3-1.7c0.2-0.5,0.5-1,0.9-1.4c0.4-0.4,0.8-0.7,1.3-0.9
			C29.6,0.1,30.1,0,30.7,0c0.6,0,1.2,0.1,1.7,0.3c0.5,0.2,0.9,0.5,1.2,0.9C34,1.6,34.2,2,34.4,2.5c0.2,0.5,0.3,0.9,0.3,1.4v0.8h-7
			c0,0.2,0,0.5,0.1,0.9c0.1,0.4,0.3,0.7,0.5,1c0.2,0.3,0.6,0.6,1,0.9c0.4,0.2,0.9,0.4,1.6,0.4c0.6,0,1.1-0.1,1.6-0.4
			c0.5-0.3,0.9-0.6,1.2-1.1L34.4,7z M33.6,3.7c0-0.4-0.1-0.7-0.2-1C33.2,2.3,33,2,32.7,1.8c-0.3-0.2-0.6-0.4-0.9-0.6
			C31.4,1,31.1,1,30.7,1c-0.6,0-1.1,0.1-1.5,0.4c-0.4,0.2-0.7,0.5-0.9,0.8c-0.2,0.3-0.4,0.6-0.5,0.9c-0.1,0.3-0.1,0.5-0.1,0.6H33.6z
			"/>
		<path fill="#C5C5C5" d="M37.1,6.4c0.2,0.4,0.6,0.8,1,1c0.4,0.2,0.9,0.4,1.4,0.4c0.2,0,0.5,0,0.7-0.1c0.2-0.1,0.4-0.2,0.6-0.3
			c0.2-0.1,0.3-0.3,0.4-0.5c0.1-0.2,0.2-0.4,0.2-0.6c0-0.4-0.1-0.7-0.4-0.9c-0.2-0.2-0.5-0.3-0.9-0.4c-0.4-0.1-0.8-0.2-1.2-0.3
			c-0.4-0.1-0.8-0.2-1.2-0.4c-0.4-0.2-0.7-0.4-0.9-0.7c-0.2-0.3-0.4-0.7-0.4-1.2c0-0.4,0.1-0.8,0.3-1.1c0.2-0.3,0.4-0.5,0.7-0.7
			c0.3-0.2,0.6-0.3,0.9-0.4C38.6,0,38.9,0,39.3,0c0.7,0,1.3,0.1,1.8,0.4C41.6,0.6,42,1,42.2,1.6l-1,0.6c-0.2-0.4-0.5-0.7-0.8-0.9
			C40.2,1.1,39.8,1,39.3,1c-0.2,0-0.4,0-0.6,0.1c-0.2,0.1-0.4,0.1-0.6,0.3c-0.2,0.1-0.3,0.2-0.4,0.4c-0.1,0.2-0.2,0.4-0.2,0.6
			c0,0.4,0.1,0.6,0.4,0.8c0.2,0.2,0.5,0.3,0.9,0.4c0.4,0.1,0.8,0.2,1.2,0.3c0.4,0.1,0.8,0.2,1.2,0.3c0.4,0.2,0.7,0.4,0.9,0.7
			c0.2,0.3,0.4,0.7,0.4,1.3c0,0.4-0.1,0.8-0.2,1.1c-0.2,0.3-0.4,0.6-0.7,0.8c-0.3,0.2-0.6,0.4-1,0.5c-0.4,0.1-0.7,0.2-1.1,0.2
			c-0.7,0-1.4-0.1-2-0.4c-0.6-0.3-1.1-0.7-1.4-1.3L37.1,6.4z"/>
		<path fill="#C5C5C5" d="M44.7,6.4c0.2,0.4,0.6,0.8,1,1c0.4,0.2,0.9,0.4,1.4,0.4c0.2,0,0.5,0,0.7-0.1c0.2-0.1,0.4-0.2,0.6-0.3
			c0.2-0.1,0.3-0.3,0.4-0.5C49,6.7,49,6.5,49,6.2c0-0.4-0.1-0.7-0.4-0.9c-0.2-0.2-0.5-0.3-0.9-0.4c-0.4-0.1-0.8-0.2-1.2-0.3
			c-0.4-0.1-0.8-0.2-1.2-0.4c-0.4-0.2-0.7-0.4-0.9-0.7c-0.2-0.3-0.4-0.7-0.4-1.2c0-0.4,0.1-0.8,0.3-1.1C44.5,1,44.8,0.8,45,0.6
			c0.3-0.2,0.6-0.3,0.9-0.4C46.3,0,46.6,0,47,0c0.7,0,1.3,0.1,1.8,0.4c0.5,0.3,0.9,0.6,1.2,1.2l-1,0.6c-0.2-0.4-0.5-0.7-0.8-0.9
			C47.9,1.1,47.5,1,47,1c-0.2,0-0.4,0-0.6,0.1c-0.2,0.1-0.4,0.1-0.6,0.3c-0.2,0.1-0.3,0.2-0.4,0.4c-0.1,0.2-0.2,0.4-0.2,0.6
			c0,0.4,0.1,0.6,0.4,0.8c0.2,0.2,0.5,0.3,0.9,0.4s0.8,0.2,1.2,0.3c0.4,0.1,0.8,0.2,1.2,0.3c0.4,0.2,0.7,0.4,0.9,0.7
			c0.2,0.3,0.4,0.7,0.4,1.3c0,0.4-0.1,0.8-0.2,1.1c-0.2,0.3-0.4,0.6-0.7,0.8c-0.3,0.2-0.6,0.4-1,0.5c-0.4,0.1-0.7,0.2-1.1,0.2
			c-0.7,0-1.4-0.1-2-0.4c-0.6-0.3-1.1-0.7-1.4-1.3L44.7,6.4z"/>
	</g>
</g>
<g id="レイヤー_2" display="none">
	<g display="inline">
		<path fill="#040000" d="M6.8,5c0,0.4,0,0.8,0,1.1c0,0.3,0,0.6,0,0.9c0,0.3,0,0.5,0,0.8c0,0.2,0,0.5,0.1,0.7H6
			C5.9,8.1,5.9,7.7,5.9,7.2h0C5.5,7.7,5.2,8.1,4.7,8.4c-0.5,0.3-1,0.4-1.8,0.4c-0.4,0-0.7,0-1.1-0.1C1.5,8.5,1.2,8.4,0.9,8.2
			C0.7,8,0.4,7.7,0.3,7.4C0.1,7.1,0,6.7,0,6.3c0-0.6,0.2-1.1,0.5-1.5c0.3-0.4,0.7-0.7,1.2-0.8c0.5-0.2,1-0.3,1.5-0.4
			c0.5-0.1,1-0.1,1.4-0.1h1.3V3c0-0.7-0.2-1.2-0.7-1.5C4.8,1.1,4.2,1,3.5,1C2.6,1,1.7,1.3,1,1.9L0.4,1.2c0.4-0.4,0.9-0.7,1.5-0.9
			S3,0,3.5,0c1,0,1.8,0.2,2.4,0.7C6.5,1.2,6.8,1.9,6.8,3V5z M4.7,4.4c-0.5,0-0.9,0-1.3,0.1C2.9,4.5,2.5,4.6,2.2,4.8
			C1.9,4.9,1.6,5.1,1.4,5.3C1.2,5.6,1.1,5.9,1.1,6.2c0,0.3,0.1,0.5,0.2,0.7c0.1,0.2,0.3,0.4,0.4,0.5c0.2,0.1,0.4,0.2,0.6,0.3
			C2.5,7.7,2.7,7.8,3,7.8c0.6,0,1-0.1,1.4-0.3c0.4-0.2,0.7-0.4,0.9-0.7c0.2-0.3,0.4-0.6,0.5-0.9c0.1-0.3,0.1-0.7,0.1-1V4.4H4.7z"/>
		<path fill="#040000" d="M16.7,7.3c-0.4,0.5-0.9,0.9-1.4,1.1c-0.5,0.2-1.1,0.4-1.7,0.4c-0.6,0-1.2-0.1-1.8-0.3
			c-0.5-0.2-1-0.5-1.4-0.9c-0.4-0.4-0.7-0.9-0.9-1.4C9.4,5.6,9.3,5,9.3,4.4c0-0.6,0.1-1.2,0.3-1.8c0.2-0.5,0.5-1,0.9-1.4
			c0.4-0.4,0.8-0.7,1.4-0.9C12.4,0.1,13,0,13.6,0c0.6,0,1.2,0.1,1.7,0.4c0.5,0.3,1,0.6,1.4,1.1l-0.9,0.6c-0.3-0.3-0.7-0.6-1-0.8
			C14.5,1.1,14.1,1,13.6,1c-0.5,0-1,0.1-1.4,0.3c-0.4,0.2-0.8,0.4-1,0.7c-0.3,0.3-0.5,0.7-0.7,1.1c-0.1,0.4-0.2,0.9-0.2,1.3
			c0,0.5,0.1,0.9,0.2,1.3c0.1,0.4,0.4,0.8,0.7,1.1c0.3,0.3,0.6,0.5,1,0.7c0.4,0.2,0.9,0.3,1.4,0.3c0.5,0,0.9-0.1,1.3-0.3
			c0.4-0.2,0.7-0.5,1-0.8L16.7,7.3z"/>
		<path fill="#040000" d="M25.3,7.3c-0.4,0.5-0.9,0.9-1.4,1.1c-0.5,0.2-1.1,0.4-1.7,0.4c-0.6,0-1.2-0.1-1.8-0.3
			c-0.5-0.2-1-0.5-1.4-0.9c-0.4-0.4-0.7-0.9-0.9-1.4C18,5.6,17.9,5,17.9,4.4c0-0.6,0.1-1.2,0.3-1.8c0.2-0.5,0.5-1,0.9-1.4
			c0.4-0.4,0.8-0.7,1.4-0.9C21.1,0.1,21.6,0,22.3,0c0.6,0,1.2,0.1,1.7,0.4c0.5,0.3,1,0.6,1.4,1.1l-0.9,0.6c-0.3-0.3-0.7-0.6-1-0.8
			C23.1,1.1,22.7,1,22.3,1c-0.5,0-1,0.1-1.4,0.3c-0.4,0.2-0.8,0.4-1,0.7c-0.3,0.3-0.5,0.7-0.7,1.1C19.1,3.5,19,3.9,19,4.4
			c0,0.5,0.1,0.9,0.2,1.3c0.1,0.4,0.4,0.8,0.7,1.1c0.3,0.3,0.6,0.5,1,0.7c0.4,0.2,0.9,0.3,1.4,0.3c0.5,0,0.9-0.1,1.3-0.3
			c0.4-0.2,0.7-0.5,1-0.8L25.3,7.3z"/>
		<path fill="#040000" d="M34.4,7c-0.4,0.6-0.9,1.1-1.6,1.4c-0.6,0.3-1.3,0.4-2,0.4c-0.6,0-1.2-0.1-1.7-0.3c-0.5-0.2-1-0.5-1.3-0.9
			c-0.4-0.4-0.7-0.9-0.9-1.4c-0.2-0.5-0.3-1.1-0.3-1.8c0-0.6,0.1-1.2,0.3-1.7c0.2-0.5,0.5-1,0.9-1.4c0.4-0.4,0.8-0.7,1.3-0.9
			C29.6,0.1,30.1,0,30.7,0c0.6,0,1.2,0.1,1.7,0.3c0.5,0.2,0.9,0.5,1.2,0.9C34,1.6,34.2,2,34.4,2.5c0.2,0.5,0.3,0.9,0.3,1.4v0.8h-7
			c0,0.2,0,0.5,0.1,0.9c0.1,0.4,0.3,0.7,0.5,1c0.2,0.3,0.6,0.6,1,0.9c0.4,0.2,0.9,0.4,1.6,0.4c0.6,0,1.1-0.1,1.6-0.4
			c0.5-0.3,0.9-0.6,1.2-1.1L34.4,7z M33.6,3.7c0-0.4-0.1-0.7-0.2-1C33.2,2.3,33,2,32.7,1.8c-0.3-0.2-0.6-0.4-0.9-0.6
			C31.4,1,31.1,1,30.7,1c-0.6,0-1.1,0.1-1.5,0.4c-0.4,0.2-0.7,0.5-0.9,0.8c-0.2,0.3-0.4,0.6-0.5,0.9c-0.1,0.3-0.1,0.5-0.1,0.6H33.6z
			"/>
		<path fill="#040000" d="M37.1,6.4c0.2,0.4,0.6,0.8,1,1c0.4,0.2,0.9,0.4,1.4,0.4c0.2,0,0.5,0,0.7-0.1c0.2-0.1,0.4-0.2,0.6-0.3
			c0.2-0.1,0.3-0.3,0.4-0.5c0.1-0.2,0.2-0.4,0.2-0.6c0-0.4-0.1-0.7-0.4-0.9c-0.2-0.2-0.5-0.3-0.9-0.4c-0.4-0.1-0.8-0.2-1.2-0.3
			c-0.4-0.1-0.8-0.2-1.2-0.4c-0.4-0.2-0.7-0.4-0.9-0.7c-0.2-0.3-0.4-0.7-0.4-1.2c0-0.4,0.1-0.8,0.3-1.1c0.2-0.3,0.4-0.5,0.7-0.7
			c0.3-0.2,0.6-0.3,0.9-0.4C38.6,0,38.9,0,39.3,0c0.7,0,1.3,0.1,1.8,0.4C41.6,0.6,42,1,42.2,1.6l-1,0.6c-0.2-0.4-0.5-0.7-0.8-0.9
			C40.2,1.1,39.8,1,39.3,1c-0.2,0-0.4,0-0.6,0.1c-0.2,0.1-0.4,0.1-0.6,0.3c-0.2,0.1-0.3,0.2-0.4,0.4c-0.1,0.2-0.2,0.4-0.2,0.6
			c0,0.4,0.1,0.6,0.4,0.8c0.2,0.2,0.5,0.3,0.9,0.4c0.4,0.1,0.8,0.2,1.2,0.3c0.4,0.1,0.8,0.2,1.2,0.3c0.4,0.2,0.7,0.4,0.9,0.7
			c0.2,0.3,0.4,0.7,0.4,1.3c0,0.4-0.1,0.8-0.2,1.1c-0.2,0.3-0.4,0.6-0.7,0.8c-0.3,0.2-0.6,0.4-1,0.5c-0.4,0.1-0.7,0.2-1.1,0.2
			c-0.7,0-1.4-0.1-2-0.4c-0.6-0.3-1.1-0.7-1.4-1.3L37.1,6.4z"/>
		<path fill="#040000" d="M44.7,6.4c0.2,0.4,0.6,0.8,1,1c0.4,0.2,0.9,0.4,1.4,0.4c0.2,0,0.5,0,0.7-0.1c0.2-0.1,0.4-0.2,0.6-0.3
			c0.2-0.1,0.3-0.3,0.4-0.5C49,6.7,49,6.5,49,6.2c0-0.4-0.1-0.7-0.4-0.9c-0.2-0.2-0.5-0.3-0.9-0.4c-0.4-0.1-0.8-0.2-1.2-0.3
			c-0.4-0.1-0.8-0.2-1.2-0.4c-0.4-0.2-0.7-0.4-0.9-0.7c-0.2-0.3-0.4-0.7-0.4-1.2c0-0.4,0.1-0.8,0.3-1.1C44.5,1,44.8,0.8,45,0.6
			c0.3-0.2,0.6-0.3,0.9-0.4C46.3,0,46.6,0,47,0c0.7,0,1.3,0.1,1.8,0.4c0.5,0.3,0.9,0.6,1.2,1.2l-1,0.6c-0.2-0.4-0.5-0.7-0.8-0.9
			C47.9,1.1,47.5,1,47,1c-0.2,0-0.4,0-0.6,0.1c-0.2,0.1-0.4,0.1-0.6,0.3c-0.2,0.1-0.3,0.2-0.4,0.4c-0.1,0.2-0.2,0.4-0.2,0.6
			c0,0.4,0.1,0.6,0.4,0.8c0.2,0.2,0.5,0.3,0.9,0.4c0.4,0.1,0.8,0.2,1.2,0.3c0.4,0.1,0.8,0.2,1.2,0.3c0.4,0.2,0.7,0.4,0.9,0.7
			c0.2,0.3,0.4,0.7,0.4,1.3c0,0.4-0.1,0.8-0.2,1.1c-0.2,0.3-0.4,0.6-0.7,0.8c-0.3,0.2-0.6,0.4-1,0.5c-0.4,0.1-0.7,0.2-1.1,0.2
			c-0.7,0-1.4-0.1-2-0.4c-0.6-0.3-1.1-0.7-1.4-1.3L44.7,6.4z"/>
	</g>
</g>
</svg>
