<?xml version="1.0" encoding="utf-8"?>
<!-- Generator: Adobe Illustrator 18.1.1, SVG Export Plug-In . SVG Version: 6.00 Build 0)  -->
<!DOCTYPE svg PUBLIC "-//W3C//DTD SVG 1.1//EN" "http://www.w3.org/Graphics/SVG/1.1/DTD/svg11.dtd">
<svg version="1.1" id="レイヤー_1" xmlns="http://www.w3.org/2000/svg" xmlns:xlink="http://www.w3.org/1999/xlink" x="0px"
	 y="0px" width="113.5px" height="38.4px" viewBox="0 0 113.5 38.4" enable-background="new 0 0 113.5 38.4" xml:space="preserve">
<g>
	<path fill="#5D5D5D" d="M17.5,19.1c0,5.9-1.8,11.4-8.4,11.4c-2.9,0-5.7-1.4-7.2-3.2v11.2H1.3V13.2c0-1-0.2-2.4-0.5-3.5l0.6-0.1
		C1.7,10.8,2,12.5,2,13.9c0.8-1.6,3.2-4.6,7.9-4.6C13.7,9.2,17.5,11.6,17.5,19.1z M16.8,19.1c0-5.3-2.1-9.2-6.9-9.2
		c-5,0-7.2,3.7-7.8,5.1C2,15.6,2,16.5,2,17.1v7.2c0,0.6,0,1.5,0.1,1.9c1.1,1.5,3.6,3.5,7.2,3.5C14.3,29.8,16.8,26.2,16.8,19.1z"/>
	<path fill="#5D5D5D" d="M34,9.4l-0.1,0.7c-2.8,0-6,1.5-7.4,4.8v15.2h-0.7V15.7c0-2.4-0.2-4.9-0.5-5.9l0.6-0.1
		c0.4,1.2,0.6,2.9,0.6,4.2C28,10.8,31.1,9.4,34,9.4z"/>
	<path fill="#5D5D5D" d="M56.1,19.9c0,5.8-2.3,10.8-9,10.8c-6.6,0-9-5-9-10.8c0-5.8,2.3-10.7,9-10.7C53.8,9.1,56.1,14.1,56.1,19.9z
		 M55.4,19.9c0-6-2.4-10-8.2-10c-5.7,0-8.2,4-8.2,10c0,6.1,2.5,10.1,8.2,10.1C52.9,30,55.4,25.9,55.4,19.9z"/>
	<path fill="#5D5D5D" d="M77.1,9.7v20.4h-0.7V10.4H65.6v19.7h-0.7V10.4h-4.2V9.7h4.2V8.4c0-5,2.6-7.6,7.1-7.6c0.6,0,2.1,0.2,3.3,0.6
		L75,2c-1.1-0.3-2.5-0.5-3.1-0.5c-3.1,0-6.4,1-6.4,6.9v1.3H77.1z"/>
	<path fill="#5D5D5D" d="M88.1,0.9v29.2h-0.7V1L88.1,0.9z"/>
	<path fill="#5D5D5D" d="M96.9,18.9c0,0.5,0,0.9,0,1.4c0,5.4,2.4,9.6,8.6,9.6c2.7,0,5-0.6,6.7-1.4l0.2,0.7c-1.7,0.8-4.3,1.4-6.9,1.4
		c-4.6,0-9.3-2.4-9.3-10.3c0-6.7,3.4-11.2,8.7-11.2c4.5,0,7.8,2.4,7.8,9.4v0.4H96.9z M97,18.2h15c-0.1-5.9-2.6-8.5-7.2-8.5
		C100.6,9.7,97.7,12.9,97,18.2z"/>
</g>
</svg>
