<?xml version="1.0" encoding="utf-8"?>
<!-- Generator: Adobe Illustrator 18.1.1, SVG Export Plug-In . SVG Version: 6.00 Build 0)  -->
<!DOCTYPE svg PUBLIC "-//W3C//DTD SVG 1.1//EN" "http://www.w3.org/Graphics/SVG/1.1/DTD/svg11.dtd">
<svg version="1.1" id="レイヤー_1" xmlns="http://www.w3.org/2000/svg" xmlns:xlink="http://www.w3.org/1999/xlink" x="0px"
	 y="0px" width="99.5px" height="15.3px" viewBox="0 0 99.5 15.3" enable-background="new 0 0 99.5 15.3" xml:space="preserve">
<g>
	<path fill="#5D5D5D" d="M7.3,11.7H6.9L1,6.2v5.5H0.7V1H1v5.1L6.8,1h0.4L1.3,6.1L7.3,11.7z"/>
	<path fill="#5D5D5D" d="M16,7.8c0,2.3-0.9,4.2-3.5,4.2C10,12,9.1,10,9.1,7.7c0-2.2,0.9-4.2,3.5-4.2C15.1,3.6,16,5.5,16,7.8z
		 M15.7,7.7c0-2.4-1-3.9-3.2-3.9c-2.2,0-3.2,1.6-3.2,3.9c0,2.4,1,3.9,3.2,3.9C14.8,11.7,15.7,10.1,15.7,7.7z"/>
	<path fill="#5D5D5D" d="M25.1,6.7v5h-0.3v-5c0-1.3-0.3-2.8-2.1-2.8c-1.1,0-2.4,0.6-3.2,1.5v6.3h-0.3V0.4l0.3-0.1v4.8
		c0.8-0.9,2.1-1.5,3.2-1.5C24.2,3.7,25.1,4.5,25.1,6.7z"/>
	<path fill="#5D5D5D" d="M28.4,7.4c0,0.2,0,0.4,0,0.5c0,2.1,0.9,3.7,3.3,3.7c1.1,0,1.9-0.2,2.6-0.5l0.1,0.3
		c-0.6,0.3-1.7,0.6-2.7,0.6c-1.8,0-3.6-0.9-3.6-4c0-2.6,1.3-4.4,3.4-4.4c1.7,0,3,0.9,3,3.7v0.2H28.4z M28.4,7.1h5.9
		c-0.1-2.3-1-3.3-2.8-3.3C29.9,3.8,28.7,5,28.4,7.1z"/>
	<path fill="#5D5D5D" d="M38.1,1.1v0.6h-0.5V1.1H38.1z M37.7,3.8H38v7.9h-0.3V3.8z"/>
	<path fill="#5D5D5D" d="M51.9,1v0.3h-3.9v10.5h-0.3V1.2h-3.8V1H51.9z"/>
	<path fill="#5D5D5D" d="M59.5,11.7l-0.3,0.1c-0.4-0.4-0.6-1.3-0.7-1.8c-0.4,1.2-1.6,1.9-2.9,1.9c-1.4,0-2.5-0.7-2.5-2.2
		c0-1.7,0.8-2.4,5.3-2.6V6c0-1.2-0.3-2.2-2-2.2c-1,0-1.8,0.3-2.6,0.8l-0.1-0.3c0.7-0.5,1.7-0.8,2.8-0.8c2,0,2.3,1.1,2.3,2.4v3.4
		C58.8,10.3,59.1,11.2,59.5,11.7z M58.5,7.3c-3.9,0.2-5.1,0.6-5.1,2.3c0,1.7,1.5,2,2.2,2c1.6,0,2.5-1,2.9-2.2V7.3z"/>
	<path fill="#5D5D5D" d="M68.3,3.8c-0.1,0.4-0.1,1-0.1,1.4v7.1c0,1.2-0.6,2.7-3,2.7c-1,0-2.1-0.4-2.9-0.8l0.1-0.3
		c0.7,0.4,1.8,0.8,2.7,0.8c1.8,0,2.7-1,2.7-2.4v-2.2c-0.3,0.6-1.2,1.8-3.1,1.8c-1.5,0-3-0.9-3-3.8c0-2.3,0.7-4.4,3.2-4.4
		c1.1,0,2.2,0.5,2.8,1.3c0-0.2,0.1-0.7,0.1-1.1H68.3z M67.9,6c0-0.2,0-0.6,0-0.7c-0.4-0.6-1.4-1.4-2.8-1.4c-2,0-2.9,1.4-2.9,4.1
		c0,2,0.8,3.6,2.7,3.6c2,0,2.8-1.4,3.1-2c0-0.2,0-0.5,0-0.8V6z"/>
	<path fill="#5D5D5D" d="M77.9,11.9l-0.3,0.1c-0.2-0.4-0.3-1-0.3-1.4c-0.8,0.9-2.1,1.5-3.2,1.5c-1.5,0-2.4-0.9-2.4-3.1V3.8h0.3v5.1
		c0,1.3,0.3,2.8,2.1,2.8c1.1,0,2.4-0.6,3.2-1.5V3.8h0.3v6.7C77.7,10.9,77.7,11.4,77.9,11.9z"/>
	<path fill="#5D5D5D" d="M86.3,11.7c-0.5,0.2-1.2,0.3-1.9,0.3c-2.7,0-3.6-1.9-3.6-4.1c0-2.6,1.1-4.4,3.6-4.4c0.6,0,1.2,0.1,1.8,0.3
		l-0.1,0.3c-0.6-0.2-1.2-0.3-1.8-0.3c-2.5,0-3.3,2-3.3,4.1c0,1.9,0.7,3.8,3.3,3.8c0.7,0,1.3-0.1,1.8-0.3L86.3,11.7z"/>
	<path fill="#5D5D5D" d="M94.9,6.7v5h-0.3v-5c0-1.3-0.3-2.8-2.1-2.8c-1.1,0-2.4,0.6-3.2,1.5v6.3h-0.3V0.4l0.3-0.1v4.8
		c0.8-0.9,2.1-1.5,3.2-1.5C94,3.7,94.9,4.5,94.9,6.7z"/>
	<path fill="#5D5D5D" d="M99,1.1v0.6h-0.5V1.1H99z M98.6,3.8h0.3v7.9h-0.3V3.8z"/>
</g>
</svg>
