<?xml version="1.0" encoding="utf-8"?>
<!-- Generator: Adobe Illustrator 18.1.1, SVG Export Plug-In . SVG Version: 6.00 Build 0)  -->
<!DOCTYPE svg PUBLIC "-//W3C//DTD SVG 1.1//EN" "http://www.w3.org/Graphics/SVG/1.1/DTD/svg11.dtd">
<svg version="1.1" id="レイヤー_1" xmlns="http://www.w3.org/2000/svg" xmlns:xlink="http://www.w3.org/1999/xlink" x="0px"
	 y="0px" width="86.9px" height="28px" viewBox="0 0 86.9 28" enable-background="new 0 0 86.9 28" xml:space="preserve">
<g>
	<path fill="#5D5D5D" d="M30.2,7.1L23,27.4h-0.6L15.3,8.4L8.2,27.4H7.6L0.4,7.1h0.8l6.8,19.3L15,7.3h0.6l7.1,19.1l6.7-19.3H30.2z"/>
	<path fill="#5D5D5D" d="M37.5,0v1.6h-1.3V0H37.5z M36.5,7.1h0.7v20.4h-0.7V7.1z"/>
	<path fill="#5D5D5D" d="M62.1,14.6v12.9h-0.7V14.6c0-3.3-0.6-7.2-5.5-7.2c-2.8,0-6.2,1.6-8.2,3.9v16.1H47V10.6c0-1-0.2-2.4-0.5-3.5
		L47,6.9c0.4,1.2,0.6,2.6,0.6,3.6c2.1-2.3,5.4-3.8,8.2-3.8C59.7,6.7,62.1,8.9,62.1,14.6z"/>
	<path fill="#5D5D5D" d="M70.7,16.2c0,0.5,0,0.9,0,1.4c0,5.4,2.4,9.6,8.6,9.6c2.7,0,5-0.6,6.7-1.4l0.2,0.7c-1.7,0.8-4.3,1.4-6.9,1.4
		c-4.6,0-9.3-2.4-9.3-10.3c0-6.7,3.4-11.2,8.7-11.2c4.5,0,7.8,2.4,7.8,9.4v0.4H70.7z M70.7,15.5h15c-0.1-5.9-2.6-8.5-7.2-8.5
		C74.4,7.1,71.4,10.2,70.7,15.5z"/>
</g>
</svg>
